<?xml version="1.0" standalone="no"?>
<!DOCTYPE svg PUBLIC "-//W3C//DTD SVG 1.1//EN" "http://www.w3.org/Graphics/SVG/1.1/DTD/svg11.dtd">
<svg xmlns="http://www.w3.org/2000/svg">
<metadata>Generated by Fontastic.me</metadata>
<defs>
<font id="kcicons" horiz-adv-x="512">
<font-face font-family="kcicons" units-per-em="512" ascent="480" descent="-32"/>
<missing-glyph horiz-adv-x="512" />

<glyph glyph-name="account" unicode="&#97;" d="M454 126c-24 23-54 34-83 51-7 5-19 10-29 17-29 17-41 37-17 66 26 32 41 69 46 109 8 66-24 120-78 137-12 4-25 5-37 6-12-1-24-2-36-6-55-17-87-71-79-137 5-40 20-77 46-109 24-30 12-49-17-66-10-7-22-12-29-17-29-18-59-29-83-51-33-31-23-79 18-97 23-10 49-17 74-21 31-5 63-6 95-9 4 0 7 0 11 0 4 0 8 0 12 0 31 3 63 4 94 9 26 4 51 10 74 21 41 18 51 66 18 97z"/>
<glyph glyph-name="bel-ons" unicode="&#98;" d="M510 104l-3 8c-6 18-25 36-44 42l-67 18c-18 5-44-2-57-15l-25-24c-88 23-158 93-181 181l24 25c13 13 20 39 15 57l-18 67c-5 19-24 38-42 44l-8 3c-18 7-43 0-57-13l-36-37c-6-6-10-25-10-25-2-115 44-227 125-309 82-81 193-127 308-125 1 0 20 4 26 10l36 37c14 12 20 38 14 56z"/>
<glyph glyph-name="categorieen" unicode="&#99;" d="M203 273l-76 0c-19 0-34 15-34 34l0 76c0 19 15 34 34 34l76 0c19 0 34-15 34-34l0-76c0-19-15-34-34-34z m0-178l-76 0c-19 0-34 16-34 35l0 75c0 19 15 34 34 34l76 0c19 0 34-15 34-34l0-76c0-18-15-34-34-34z m182 178l-76 0c-19 0-34 15-34 34l0 76c0 19 15 34 34 34l76 0c19 0 34-15 34-34l0-76c0-19-15-34-34-34z m0-178l-76 0c-19 0-34 16-34 35l0 75c0 19 15 35 34 35l76 0c19 0 34-16 34-35l0-75c0-19-15-35-34-35z"/>
<glyph glyph-name="zoek" unicode="&#115;" d="M360 109c-122-84-252-39-314 43-69 91-59 218 22 297 81 79 209 84 298 12 81-65 117-193 38-308 28-28 58-57 87-86 4-5 9-9 13-15 11-15 10-32-2-44-12-11-29-13-43 0-16 15-32 30-47 46-17 19-35 37-52 55z m24 178c0 88-72 161-160 161-87 0-159-71-160-158-1-88 71-161 159-162 88 0 161 72 161 159z"/>
<glyph glyph-name="zelf-maken" unicode="&#114;" d="M36 167c7 20 20 41 35 57 63 65 127 129 190 192 52-52 103-103 154-154-68-68-136-138-208-206-17-15-44-22-67-29-30-10-124-36-137-24-13 13 20 127 33 164z m434 151c-51 51-101 101-152 151 41 51 111 58 158 14 50-46 48-115-6-165z"/>
<glyph glyph-name="voeg-toe" unicode="&#113;" d="M256 16c-132 0-240 108-240 240 0 132 108 240 240 240 133 0 240-108 240-240 0-132-108-240-240-240z m0 442c-111 0-202-91-202-202 0-112 91-202 202-202 111 0 202 91 202 202 0 111-91 202-202 202z m114-166l-78 0 0 78-72 0 0-78-78 0 0-72 78 0 0-78 72 0 0 78 78 0z"/>
<glyph glyph-name="uit-inloggen" unicode="&#112;" d="M286 366c-20 19-39 36-55 55-7 9-14 25-10 33 4 9 19 18 30 20 69 8 137 14 206 20 27 2 41-11 39-38-6-71-12-142-20-212-1-10-11-22-19-26-9-2-23 2-31 8-20 17-38 38-59 59-35-35-68-69-102-103-12-12-23-24-35-35-15-16-30-16-46-1-11 11-23 22-34 34-17 18-17 31 0 49 40 40 80 79 120 119 5 6 9 11 16 18z m-74-20c-13-12-26-25-41-37-4-3-11-4-17-5-20 0-38 0-57 0-22-1-34-13-34-35-1-56-1-113 0-169 0-24 12-36 37-36 55 0 111 0 165 0 26 0 40 12 37 38-6 42 15 67 47 90 0-4 2-7 2-11 0-38 0-75 0-113 0-34-17-50-50-50-79 0-159 0-238 0-31 0-47 15-47 46 0 81 0 161 0 242 0 27 14 45 41 46 51 1 101 0 152 0 0-1 2-4 3-6z"/>
<glyph glyph-name="nieuwe-kaartjes" unicode="&#111;" d="M329 338l-25 0-2 1c-5 19-10 33-15 42-23 53-36 81-36 85l0 3-4 0c-7-6-16-19-28-39-22-57-37-93-44-108l-59 5c0 0-71 11-75 2-1-3 8-17 20-32l-1 0 0-1 2-5c15-16 28-29 38-41 22-25 34-40 34-45 11-5 16-11 16-18l0 0c-3-53-7-85-11-97-7-16-10-27-10-32 2-8 4-13 7-14 4 0 7 1 10 3l69 51c24 24 39 36 44 36 10 0 37-6 79-18 36-12 66-25 89-39 3 0 6 2 10 5 0 4-2 7-6 9-17 25-26 40-26 46-15 30-28 58-40 86l0 2c0 1 14 15 43 40 23 16 39 29 48 39 5 10 11 19 16 25l0 2c-1 3-48 5-143 7z"/>
<glyph glyph-name="meisje" unicode="&#110;" d="M318 512c-107 0-195-87-195-195 0-41 13-79 35-111l-47-47-52 52c-14 13-35 13-49 0-13-14-13-35 0-49l52-52-42-42c-14-14-14-35 0-49 7-6 16-9 24-9 9 0 18 3 24 10l43 42 52-52c6-7 15-10 24-10 9 0 17 3 24 10 14 14 14 35 0 49l-52 52 48 47c31-22 70-35 111-35 107 0 195 88 195 195 0 107-88 194-195 194z m0-320c-70 0-126 56-126 125 0 70 56 126 126 126 69 0 126-56 126-126-1-69-57-125-126-125z"/>
<glyph glyph-name="mandje" unicode="&#109;" d="M47 252c-6 1-12 1-17 4-11 4-16 16-13 27 3 11 13 17 23 17 17 0 35 0 53 0-3-12-1-24 6-35 19-26 58-25 74 3 6 10 12 19 17 28 1 3 2 4 6 4 40 0 79 0 120 0 3 0 5-1 6-4 7-11 13-23 21-33 9-12 22-18 37-16 20 2 33 13 39 31 2 7 2 14 2 22 4 0 7 0 11 0 15 0 28 0 42 0 12 0 22-10 22-22 0-14-9-25-22-25-3 0-5 0-8 0-3-9-5-18-8-27-13-49-26-99-39-149-4-15-21-26-35-26-85 0-169 0-255 0-17 0-32 12-36 28-15 56-30 112-44 168-2 2-2 4-2 5z m111-103c0 16 0 33 0 49 0 6-5 14-12 14-8 0-13-6-13-14 0-33 0-66 0-99 0-8 5-14 12-14 7 0 13 6 13 14 0 17 0 34 0 50z m148 0c0 16-1 33 0 49 0 8-7 14-12 14-8 0-13-6-13-14 0-33 0-65 0-99 0-8 6-14 13-13 7 0 12 7 12 13-1 17 0 34 0 50z m49 0c0-16 0-32 0-49 0-2 0-6 2-9 3-5 8-6 13-5 7 2 10 7 10 14 0 32 0 65 0 97 0 8-6 15-14 15-7 0-12-6-12-15 1-16 1-32 1-48z m-148 0c0-6 0-11 0-16 0-12 0-23 0-35 0-9 8-14 15-12 7 3 10 7 10 15 0 16 0 33 0 49 0 15 0 31 0 46 0 9-6 15-14 15-7 0-12-6-12-15 1-15 1-31 1-47z m-96 142c1 4 2 8 4 12 28 48 56 97 84 146 5 9 17 14 28 11 11-3 17-13 16-24 0-4-1-8-3-11-28-48-56-97-84-145-5-10-16-14-27-11-10 2-17 11-18 22z m266-24c-11 1-17 6-22 14-18 31-36 62-54 93-9 17-19 34-29 51-7 13-3 27 10 33 12 6 25 2 31-10 25-43 49-85 74-128 4-6 8-12 11-19 7-15-4-34-21-34z"/>
<glyph glyph-name="jongen" unicode="&#108;" d="M511 480c0 2 0 3-1 3 0 1 0 2-1 4 0 1-1 2-2 4 0 1-1 1-1 2-3 4-6 8-10 10-1 1-1 1-3 2-1 0-2 1-3 1-1 0-2 0-3 1-1 0-2 0-3 1-2 1-4 1-6 1 0 0 0 0 0 0l-178 0c-19 0-35-16-35-35 0-20 16-35 35-35l93 0-78-78c-33 24-73 38-117 38-109 0-198-89-198-197 0-109 89-198 198-198 109 0 197 89 197 198 0 40-12 77-33 108l79 80 0-93c0-19 16-35 35-35 20 0 35 16 35 35l0 177c1 2 1 4 0 6z m-313-407c-71 0-129 58-129 129 0 70 58 127 129 127 70 0 128-57 128-127 0-71-57-129-128-129z"/>
<glyph glyph-name="info" unicode="&#107;" d="M256 488c128 1 232-102 232-232 0-129-103-232-232-232-128 0-232 103-232 231-1 128 104 233 232 233z m55-346c-46-7-52 1-42 41 6 23 13 46 18 69 5 24-8 47-28 47-21 0-42-6-63-11-3 0-5-7-9-13 43 5 48-2 39-41-3-12-7-23-10-35-3-14-7-29-8-43-2-23 12-40 35-40 18 0 36 6 53 10 5 2 8 8 15 16z m0 224c-1 18-17 33-36 32-18-1-33-16-33-33 1-17 17-31 35-31 19-1 35 14 34 32z"/>
<glyph glyph-name="hgk-navigatie-links" unicode="&#105;" d="M410 0l16 17c-1 0-78 69-145 124-53 42-121 80-151 96 35 25 122 90 172 135 63 56 124 124 125 125l-17 15c-1-1-61-68-123-123-62-56-184-143-185-144l-16-11 17-8c1-1 97-48 163-102 68-55 143-123 144-124z"/>
<glyph glyph-name="hgk-navigatie-rechts" unicode="&#106;" d="M102 0l-16 17c1 0 78 69 145 124 53 42 121 80 151 96-35 25-122 90-172 135-63 56-124 124-125 125l17 15c1-1 62-68 124-123 62-56 184-143 185-144l15-11-17-8c-1-1-96-48-163-102-67-55-143-123-144-124z"/>
<glyph glyph-name="hgk-hart" unicode="&#104;" d="M257 383c0 0 39 53 74 76 35 24 88 29 125-2 37-31 38-88 23-140-14-53-73-123-104-163-31-41-95-120-95-120 0 0-93 82-144 137-51 55-115 147-112 210 3 63 50 90 102 91 53 2 79-27 98-48 18-21 33-41 33-41z"/>
<glyph glyph-name="foto" unicode="&#103;" d="M395 397l-7 0-19 42c-5 11-24 22-40 22l-143 0c-17 0-35-11-40-22l-20-42-9 0c-44 0-80-36-80-80l0-185c0-45 36-80 80-80l278 0c44 0 80 36 80 80l0 185c0 44-36 80-80 80z m-139-300c-70 0-127 57-127 127 0 71 57 128 127 128 71 0 127-58 127-128 0-70-57-127-127-127z m0 204c-43 0-77-34-77-77 0-43 34-77 77-77 43 0 78 34 78 77 0 43-35 77-78 77z"/>
<glyph glyph-name="dropdown-inactive" unicode="&#102;" d="M78 461l49 51 307-256-306-256-50 50 249 205z"/>
<glyph glyph-name="dropdown-active" unicode="&#101;" d="M461 434l51-49-256-307-256 306 50 50 205-249z"/>
<glyph glyph-name="contact" unicode="&#100;" d="M84 94c0 4-2 9 0 11 41 43 82 85 124 128 31-24 61-26 91-7 4 2 12 0 15-3 39-38 78-78 117-117 2-3 1-8 2-13-116 1-233 1-349 1z m-39 275c2 5 5 10 8 15 3-2 6-4 9-6 39-42 78-83 117-125-41-39-84-81-128-124 0 1-3 6-6 10 0 77 0 153 0 230z m389 43c-50-51-99-102-148-151-16-16-40-16-56 0-49 47-98 96-147 144-2 1-2 4-3 5 18 10 335 11 354 2z m33-24c0-89 0-174 0-264-10 6-15 10-19 14-35 35-71 71-106 107-9 8-11 14-1 23 39 37 77 75 116 112 1 2 3 3 10 8z"/>
<glyph glyph-name="iconmonstr-favorite-8-icon" unicode="&#116;" d="M376 280c-47 0-85-38-85-84 0-47 38-85 85-85 47 0 85 38 85 85 0 46-38 84-85 84z m52-100l-102 0 0 29 102 0z m-130-74c-14-14-28-28-42-42-132 133-242 226-195 324 41 83 164 76 195 4 31 72 154 79 195-4 16-33 14-66-1-99-20 16-46 26-74 26-66 0-119-53-119-119 0-36 16-68 41-90z"/>
<glyph glyph-name="iconmonstr-favorite-9-icon" unicode="&#117;" d="M318 121c-18-19-39-39-62-62-152 148-195 202-204 258-11 68 40 136 119 136 34 0 64-13 85-35 21 22 51 35 85 35 79 0 130-68 119-136-2-13-6-25-12-39l-31 31c17 54-19 104-76 104-51 0-73-40-85-60-11 18-31 60-85 60-32 0-59-16-72-43-34-69 42-139 157-254 12 11 23 23 34 34z m128 109l-52 0 0 52-41 0 0-52-53 0 0-41 53 0 0-53 41 0 0 53 52 0z"/>
<glyph glyph-name="iconmonstr-filter-2-icon" unicode="&#118;" d="M211 212l-146 250 383 0-147-250z m10-34l0-128 70 0 0 128z"/>
<glyph glyph-name="iconmonstr-trash-can-2-icon" unicode="&#119;" d="M210 318c0 8-6 15-15 15-8 0-15-7-15-15l0-183c0-8 7-15 15-15 9 0 15 7 15 15z m61 0c0 8-7 15-15 15-8 0-15-7-15-15l0-183c0-8 7-15 15-15 8 0 15 7 15 15z m61 0c0 8-7 15-15 15-9 0-15-7-15-15l0-183c0-8 6-15 15-15 8 0 15 7 15 15z m39-231l-230 0 0 279-35 0 0-314 300 0 0 314-35 0z m-41 349c-16 0-28 13-28 28l-92 0c0-15-12-28-28-28l-95 0 0-40 338 0 0 40z"/>
<glyph glyph-name="glass" unicode="&#57344;" d="M485 459c0-7-4-14-12-22l-180-181 0-219 91 0c5 0 9-2 13-6 3-3 5-8 5-13 0-5-2-9-5-13-4-3-8-5-13-5l-256 0c-5 0-9 2-13 5-3 4-5 8-5 13 0 5 2 10 5 13 4 4 8 6 13 6l91 0 0 219-180 181c-8 8-12 15-12 22 0 4 1 8 5 10 3 3 7 5 11 5 3 1 7 1 12 1l402 0c5 0 9 0 12-1 4 0 8-2 11-5 4-2 5-6 5-10z"/>
<glyph glyph-name="home" unicode="&#120;" d="M421 229l0-138c0-5-2-9-6-12-3-4-8-6-13-6l-109 0 0 110-74 0 0-110-109 0c-5 0-10 2-13 6-4 3-6 7-6 12l0 138c0 0 0 0 0 0 0 1 0 1 0 1l164 136 165-136c0 0 0-1 0-1z m63 19l-17-21c-2-2-4-3-6-3l-1 0c-3 0-5 1-6 2l-198 165-198-165c-2-2-4-2-7-2-2 0-4 1-6 3l-17 21c-2 2-2 4-2 7 0 3 1 5 3 6l205 171c6 5 14 8 22 8 8 0 16-3 22-8l69-58 0 56c0 2 1 5 3 6 2 2 4 3 7 3l54 0c3 0 5-1 7-3 2-1 3-4 3-6l0-117 62-52c2-1 3-3 3-6 0-3 0-5-2-7z"/>
<glyph glyph-name="check-mark-circle" unicode="&#57346;" d="M403 302c0 6-1 10-5 13l-26 26c-3 4-8 6-13 6-5 0-9-2-12-6l-117-116-65 64c-3 4-7 6-12 6-5 0-10-2-13-6l-26-25c-4-4-5-8-5-13 0-6 1-10 5-13l103-104c4-3 8-5 13-5 5 0 10 2 13 5l155 155c4 4 5 8 5 13z m72-46c0-40-9-77-29-110-20-34-46-60-80-80-33-20-70-29-110-29-40 0-77 9-110 29-34 20-60 46-80 80-20 33-29 70-29 110 0 40 9 77 29 110 20 34 46 60 80 80 33 20 70 29 110 29 40 0 77-9 110-29 34-20 60-46 80-80 20-33 29-70 29-110z"/>
<glyph glyph-name="chevron-right" unicode="&#57352;" d="M389 261l-212-212c-3-3-7-5-12-5-5 0-10 2-13 5l-48 48c-3 3-5 8-5 13 0 5 2 9 5 13l152 151-152 152c-3 4-5 8-5 13 0 5 2 9 5 13l48 47c3 4 8 6 13 6 5 0 9-2 12-6l212-212c4-3 6-8 6-13 0-5-2-9-6-13z"/>
<glyph glyph-name="chevron-up" unicode="&#57353;" d="M481 132l-48-47c-3-4-7-6-12-6-5 0-10 2-13 6l-152 151-152-151c-3-4-8-6-13-6-5 0-9 2-12 6l-48 47c-3 3-5 8-5 13 0 5 2 9 5 13l212 211c4 4 8 6 13 6 5 0 9-2 13-6l212-211c3-4 5-8 5-13 0-5-2-10-5-13z"/>
<glyph glyph-name="chevron-left" unicode="&#57354;" d="M408 426l-152-152 152-151c3-4 5-8 5-13 0-5-2-10-5-13l-48-48c-3-3-8-5-13-5-5 0-9 2-12 5l-212 212c-4 4-6 8-6 13 0 5 2 10 6 13l212 212c3 4 7 6 12 6 5 0 10-2 13-6l48-47c3-4 5-8 5-13 0-5-2-9-5-13z"/>
<glyph glyph-name="arrow-right" unicode="&#57347;" d="M457 238c0-11-3-19-10-26l-186-186c-8-7-17-11-26-11-10 0-19 4-26 11l-22 21c-7 7-10 16-10 26 0 10 3 19 10 26l84 84-201 0c-10 0-18 3-24 11-6 7-9 15-9 25l0 37c0 10 3 19 9 26 6 7 14 11 24 11l201 0-84 84c-7 6-10 15-10 25 0 11 3 19 10 26l22 21c7 8 16 11 26 11 10 0 18-3 26-11l186-186c7-6 10-15 10-25z"/>
<glyph glyph-name="lock" unicode="&#57348;" d="M183 293l146 0 0 54c0 21-7 38-21 52-15 14-32 22-52 22-20 0-37-8-52-22-14-14-21-31-21-52z m238-28l0-164c0-8-3-15-8-20-6-5-12-8-20-8l-274 0c-8 0-14 3-20 8-5 5-8 12-8 20l0 164c0 8 3 14 8 20 6 5 12 8 20 8l9 0 0 54c0 35 13 66 38 91 25 25 55 37 90 37 35 0 65-12 90-37 25-25 38-56 38-91l0-54 9 0c8 0 14-3 20-8 5-6 8-12 8-20z"/>
<glyph glyph-name="file-pdf-o" unicode="&#57349;" d="M456 403c5-5 10-12 14-21 4-9 5-18 5-25l0-330c0-7-2-14-8-19-5-5-11-8-19-8l-384 0c-8 0-14 3-19 8-6 5-8 12-8 19l0 458c0 7 2 14 8 19 5 5 11 8 19 8l256 0c8 0 16-2 25-6 9-4 17-8 22-13z m-127 70l0-107 108 0c-2 5-4 9-7 11l-89 90c-2 2-6 4-12 6z m110-436l0 292-119 0c-8 0-14 3-19 8-6 5-8 12-8 20l0 118-220 0 0-438z m-147 169c6-5 14-10 24-16 11 1 22 2 33 2 28 0 45-5 51-14 3-4 3-9 1-15 0 0-1 0-1 0l0-1 0 0c-1-8-8-11-21-11-9 0-20 2-32 6-13 3-26 8-38 15-42-5-79-13-112-24-29-50-52-75-69-75-3 0-5 1-8 2l-7 4c0 0 0 0-1 1-2 2-3 5-2 10 2 8 7 17 16 26 9 10 22 19 38 28 2 2 5 1 6-2 1 0 1 0 1-1 10 16 20 35 30 56 13 26 23 51 30 75-4 16-7 31-9 46-1 15 0 27 2 36 2 8 6 12 12 12l7 0c4 0 7-2 10-5 3-4 4-10 2-19 0-1-1-2-1-2 0-1 0-2 0-3l0-8c0-24-1-42-4-55 11-31 25-54 42-68z m-165-117c10 4 23 19 40 45-10-8-18-16-25-24-7-9-12-16-15-21z m114 262c-3-8-3-20 0-37 0 1 0 5 2 12 0 1 0 5 2 13 0 0 0 1 1 2 0 0-1 0-1 0 0 1 0 1 0 1 0 0 0 0 0 0 0 4-1 8-4 11 0-1 0-1 0-1z m-35-188c25 10 52 18 81 23-1 0-2 1-4 2-2 2-3 3-4 4-15 13-27 30-37 51-5-17-13-36-23-57-6-10-10-18-13-23z m184 4c-4 5-18 7-40 7 15-5 27-8 36-8 2 0 4 0 5 0 0 0 0 1-1 1z"/>
<glyph glyph-name="times" unicode="&#57345;" d="M426 134c0-7-3-14-8-19l-39-39c-5-5-12-8-20-8-7 0-14 3-19 8l-84 84-84-84c-5-5-12-8-19-8-8 0-15 3-20 8l-39 39c-5 5-8 12-8 19 0 8 3 14 8 20l84 84-84 84c-5 5-8 12-8 19 0 8 3 14 8 20l39 38c5 6 12 8 20 8 7 0 14-2 19-8l84-84 84 84c5 6 12 8 19 8 8 0 15-2 20-8l39-38c5-6 8-12 8-20 0-7-3-14-8-19l-84-84 84-84c5-6 8-12 8-20z"/>
<glyph glyph-name="calculator" unicode="&#57350;" d="M110 73c0 10-4 19-11 26-7 7-16 11-26 11-10 0-19-4-26-11-7-7-10-16-10-26 0-10 3-19 10-26 7-7 16-10 26-10 10 0 19 3 26 10 7 7 11 16 11 26z m109 0c0 10-3 19-10 26-7 7-16 11-26 11-10 0-19-4-26-11-7-7-11-16-11-26 0-10 4-19 11-26 7-7 16-10 26-10 10 0 19 3 26 10 7 7 10 16 10 26z m-109 110c0 10-4 19-11 26-7 7-16 10-26 10-10 0-19-3-26-10-7-7-10-16-10-26 0-10 3-19 10-26 7-7 16-11 26-11 10 0 19 4 26 11 7 7 11 16 11 26z m219-110c0 10-3 19-11 26-7 7-15 11-25 11-11 0-19-4-26-11-7-7-11-16-11-26 0-10 4-19 11-26 7-7 15-10 26-10 10 0 18 3 25 10 8 7 11 16 11 26z m-110 110c0 10-3 19-10 26-7 7-16 10-26 10-10 0-19-3-26-10-7-7-11-16-11-26 0-10 4-19 11-26 7-7 16-11 26-11 10 0 19 4 26 11 7 7 10 16 10 26z m-109 110c0 10-4 18-11 25-7 8-16 11-26 11-10 0-19-3-26-11-7-7-10-15-10-25 0-11 3-19 10-26 7-7 16-11 26-11 10 0 19 4 26 11 7 7 11 15 11 26z m219-110c0 10-3 19-11 26-7 7-15 10-25 10-11 0-19-3-26-10-7-7-11-16-11-26 0-10 4-19 11-26 7-7 15-11 26-11 10 0 18 4 25 11 8 7 11 16 11 26z m-110 110c0 10-3 18-10 25-7 8-16 11-26 11-10 0-19-3-26-11-7-7-11-15-11-25 0-11 4-19 11-26 7-7 16-11 26-11 10 0 19 4 26 11 7 7 10 15 10 26z m220-220l0 110c0 10-4 18-11 26-7 7-16 10-26 10-10 0-18-3-25-10-8-8-11-16-11-26l0-110c0-10 3-18 11-26 7-7 15-10 25-10 10 0 19 3 26 10 7 8 11 16 11 26z m-110 220c0 10-3 18-11 25-7 8-15 11-25 11-11 0-19-3-26-11-7-7-11-15-11-25 0-11 4-19 11-26 7-7 15-11 26-11 10 0 18 4 25 11 8 7 11 15 11 26z m110 91l0 73c0 5-2 9-6 13-3 4-7 5-12 5l-366 0c-5 0-9-1-13-5-4-4-5-8-5-13l0-73c0-5 1-9 5-13 4-3 8-5 13-5l366 0c5 0 9 2 12 5 4 4 6 8 6 13z m0-91c0 10-4 18-11 25-7 8-16 11-26 11-10 0-18-3-26-11-7-7-10-15-10-25 0-11 3-19 10-26 8-7 16-11 26-11 10 0 19 4 26 11 7 7 11 15 11 26z m36 182l0-438c0-10-3-19-10-26-8-7-16-11-26-11l-402 0c-10 0-19 4-26 11-7 7-11 16-11 26l0 438c0 10 4 19 11 26 7 7 16 11 26 11l402 0c10 0 18-4 26-11 7-7 10-16 10-26z"/>
<glyph glyph-name="search-plus" unicode="&#57355;" d="M311 283l0-18c0-2-1-4-3-6-2-2-4-3-6-3l-64 0 0-64c0-2-1-5-3-6-2-2-4-3-6-3l-19 0c-2 0-4 1-6 3-2 1-3 4-3 6l0 64-64 0c-2 0-4 1-6 3-2 2-3 4-3 6l0 18c0 3 1 5 3 7 2 2 4 3 6 3l64 0 0 64c0 2 1 4 3 6 2 2 4 3 6 3l19 0c2 0 4-1 6-3 2-2 3-4 3-6l0-64 64 0c2 0 4-1 6-3 2-2 3-4 3-7z m36-9c0 36-12 66-37 91-25 25-55 37-91 37-35 0-65-12-90-37-25-25-38-55-38-91 0-35 13-65 38-90 25-25 55-38 90-38 36 0 66 13 91 38 25 25 37 55 37 90z m147-237c0-11-4-19-11-26-7-7-16-11-26-11-10 0-19 4-26 11l-98 98c-34-24-72-36-114-36-27 0-53 5-78 16-25 11-46 25-64 43-18 18-32 39-43 64-10 25-16 51-16 78 0 28 6 54 16 78 11 25 25 47 43 65 18 18 39 32 64 43 25 10 51 15 78 15 28 0 54-5 79-15 24-11 46-25 64-43 18-18 32-40 43-65 10-24 16-50 16-78 0-42-12-80-36-114l98-98c7-7 11-15 11-25z"/>
<glyph glyph-name="caret-up" unicode="&#57356;" d="M402 165c0-5-2-10-5-13-4-4-8-6-13-6l-256 0c-5 0-9 2-13 6-3 3-5 8-5 13 0 5 2 9 5 12l128 128c4 4 8 6 13 6 5 0 9-2 13-6l128-128c3-3 5-7 5-12z"/>
<glyph glyph-name="caret-down" unicode="&#57357;" d="M402 311c0-5-2-9-5-13l-128-128c-4-4-8-5-13-5-5 0-9 1-13 5l-128 128c-3 4-5 8-5 13 0 5 2 9 5 13 4 3 8 5 13 5l256 0c5 0 9-2 13-5 3-4 5-8 5-13z"/>
<glyph glyph-name="search-minus" unicode="&#57358;" d="M311 283l0-18c0-2-1-4-3-6-2-2-4-3-6-3l-165 0c-2 0-4 1-6 3-2 2-3 4-3 6l0 18c0 3 1 5 3 7 2 2 4 3 6 3l165 0c2 0 4-1 6-3 2-2 3-4 3-7z m36-9c0 36-12 66-37 91-25 25-55 37-91 37-35 0-65-12-90-37-25-25-38-55-38-91 0-35 13-65 38-90 25-25 55-38 90-38 36 0 66 13 91 38 25 25 37 55 37 90z m147-237c0-11-4-19-11-26-7-7-16-11-26-11-10 0-19 4-26 11l-98 98c-34-24-72-36-114-36-27 0-53 5-78 16-25 11-46 25-64 43-18 18-32 39-43 64-10 25-16 51-16 78 0 28 6 54 16 78 11 25 25 47 43 65 18 18 39 32 64 43 25 10 51 15 78 15 28 0 54-5 79-15 24-11 46-25 64-43 18-18 32-40 43-65 10-24 16-50 16-78 0-42-12-80-36-114l98-98c7-7 11-15 11-25z"/>
<glyph glyph-name="share-square-o" unicode="&#57359;" d="M421 229l0-74c0-22-8-42-25-58-16-16-35-24-58-24l-237 0c-23 0-42 8-59 24-16 16-24 36-24 58l0 238c0 23 8 42 24 58 17 16 36 24 59 24l72 0c3 0 5 0 7-2 2-2 3-4 3-7 0-5-3-8-8-9-15-5-27-11-38-17-2-1-3-1-4-1l-32 0c-13 0-24-5-33-14-9-9-13-19-13-32l0-238c0-12 4-23 13-32 9-9 20-13 33-13l237 0c13 0 24 4 33 13 9 9 13 20 13 32l0 62c0 3 2 6 5 8 5 2 11 6 16 10 3 3 6 4 10 3 4-2 6-5 6-9z m67 142l-109-110c-4-3-8-5-13-5-3 0-5 0-7 1-8 4-12 9-12 17l0 55-45 0c-62 0-104-12-125-37-23-26-30-71-22-135 1-5-1-8-5-10-2-1-3-1-4-1-3 0-5 2-7 4-2 3-4 6-6 9-2 3-6 10-11 19-6 10-11 20-15 29-4 9-7 20-11 32-3 13-5 25-5 35 0 10 1 18 1 26 1 8 2 17 4 26 2 9 5 18 8 25 4 8 8 16 14 23 5 8 12 15 19 22 8 6 17 12 27 17 11 6 23 10 36 14 13 4 28 7 46 9 17 2 36 3 56 3l45 0 0 55c0 8 4 13 12 17 2 1 4 1 7 1 5 0 9-2 13-5l109-110c4-4 6-8 6-13 0-5-2-9-6-13z"/>
<glyph glyph-name="check" unicode="&#57360;" d="M477 350c0-7-2-14-8-19l-206-207-39-39c-6-5-12-8-20-8-7 0-14 3-19 8l-142 142c-6 6-8 12-8 20 0 7 2 14 8 19l38 39c6 5 12 8 20 8 7 0 14-3 19-8l84-84 188 188c5 5 12 8 19 8 8 0 14-3 20-8l38-39c6-6 8-12 8-20z"/>
<glyph glyph-name="compress" unicode="&#57361;" d="M256 238l0-128c0-5-2-10-5-13-4-4-8-6-13-6-5 0-10 2-13 6l-41 41-95-95c-2-2-4-3-7-3-2 0-4 1-6 3l-33 33c-2 2-3 4-3 6 0 3 1 5 3 7l95 95-41 41c-4 3-6 8-6 13 0 5 2 9 6 13 3 3 8 5 13 5l128 0c5 0 9-2 13-5 3-4 5-8 5-13z m216 192c0-3-1-5-3-7l-95-95 41-41c4-3 6-8 6-13 0-5-2-9-6-13-3-3-8-5-13-5l-128 0c-5 0-9 2-13 5-3 4-5 8-5 13l0 128c0 5 2 10 5 13 4 4 8 6 13 6 5 0 10-2 13-6l41-41 95 95c2 2 4 3 7 3 2 0 4-1 6-3l33-33c2-2 3-4 3-6z"/>
<glyph glyph-name="book" unicode="&#57362;" d="M487 375c7-10 9-23 5-36l-79-259c-3-12-11-23-22-31-11-8-22-12-35-12l-263 0c-15 0-29 5-43 15-13 10-23 23-28 37-5 13-5 25-1 37 0 0 0 3 1 7 1 5 1 8 1 11 0 2 0 4-1 6 0 3-1 5-1 6 1 2 2 4 3 6 1 2 2 4 4 6 2 3 4 5 5 7 5 7 9 16 13 26 4 10 7 19 9 26 0 2 0 5-1 9 0 4 0 6 0 8 1 2 2 5 5 8 3 3 4 5 5 7 4 6 8 15 12 26 4 11 6 19 7 26 0 1 0 4-1 9 0 4 0 7 0 8 1 2 3 5 7 8 3 4 5 6 6 7 3 5 8 13 12 24 4 11 7 20 8 28 0 1 0 4-1 7-1 3-1 6-1 7 1 2 2 4 3 6 1 1 3 4 5 6 2 3 4 5 5 6 2 2 3 5 5 9 1 3 3 7 4 10 1 3 3 6 5 10 1 4 3 7 5 9 2 3 5 5 8 7 3 2 6 3 10 3 4 0 8 0 14-1l-1-1c8 2 12 2 15 2l217 0c14 0 25-5 33-16 7-10 9-23 5-37l-78-259c-7-22-14-37-21-43-6-7-19-10-36-10l-249 0c-5 0-8-2-11-5-2-3-2-7 0-12 5-13 18-20 41-20l264 0c6 0 11 2 16 5 5 3 8 6 10 11l86 282c1 5 2 10 1 17 7-3 13-7 17-13z m-304 0c-1-3-1-5 0-7 1-1 3-2 6-2l174 0c2 0 4 1 7 2 2 2 4 4 5 7l6 18c0 3 0 5-1 7-1 1-3 2-6 2l-173 0c-3 0-5-1-8-2-2-2-4-4-4-7z m-24-73c-1-3-1-5 0-7 2-2 3-2 6-2l174 0c2 0 5 0 7 2 3 2 4 4 5 7l6 18c1 2 0 5-1 6-1 2-3 3-5 3l-174 0c-3 0-5-1-7-3-3-1-4-4-5-6z"/>
<glyph glyph-name="upload" unicode="&#57363;" d="M384 91c0 5-2 10-5 13-4 4-8 6-13 6-5 0-10-2-13-6-4-3-6-8-6-13 0-5 2-9 6-12 3-4 8-6 13-6 5 0 9 2 13 6 3 3 5 7 5 12z m73 0c0 5-2 10-5 13-4 4-8 6-13 6-5 0-9-2-13-6-4-3-5-8-5-13 0-5 1-9 5-12 4-4 8-6 13-6 5 0 9 2 13 6 3 3 5 7 5 12z m37 64l0-91c0-8-3-14-8-19-6-6-12-8-20-8l-420 0c-8 0-14 2-20 8-5 5-8 11-8 19l0 91c0 8 3 15 8 20 6 5 12 8 20 8l122 0c4-11 10-20 20-26 9-7 20-11 31-11l74 0c11 0 22 4 31 11 10 6 16 15 20 26l122 0c8 0 14-3 20-8 5-5 8-12 8-20z m-93 186c-3-8-9-12-17-12l-73 0 0-128c0-5-2-9-6-13-3-3-7-5-12-5l-74 0c-5 0-9 2-12 5-4 4-6 8-6 13l0 128-73 0c-8 0-14 4-17 12-3 7-2 14 4 19l128 128c4 4 8 6 13 6 5 0 9-2 13-6l128-128c6-5 7-12 4-19z"/>
<glyph glyph-name="tumblr" unicode="&#57364;" d="M379 132l23-67c-4-7-15-13-31-19-17-6-34-9-51-9-20-1-38 2-54 7-17 5-30 12-41 21-11 9-20 19-27 30-8 12-13 23-16 35-3 11-5 22-5 33l0 156-48 0 0 61c14 5 26 12 37 20 11 8 20 17 26 26 6 9 12 18 17 29 4 11 7 20 9 28 2 9 4 17 5 26 0 1 0 1 1 2 1 1 1 1 2 1l70 0 0-121 95 0 0-72-96 0 0-148c0-6 1-11 2-16 2-5 4-10 7-15 3-5 7-9 14-12 6-3 14-4 23-4 15 0 28 3 38 8z"/>
<glyph glyph-name="pinterest-p" unicode="&#57365;" d="M73 341c0 21 4 40 11 59 7 18 17 34 29 47 13 14 27 25 44 35 16 10 34 18 53 23 19 5 38 7 57 7 31 0 59-6 84-19 26-13 47-31 64-55 16-24 24-52 24-82 0-19-2-36-6-54-3-18-9-34-17-51-8-16-17-30-28-42-12-13-25-22-42-30-16-7-34-11-54-11-13 0-26 3-38 9-13 7-22 15-28 26-2-8-4-19-8-33-3-14-5-23-6-27-1-4-3-11-6-20-3-9-6-16-8-20-2-4-5-10-9-18-4-8-8-15-13-22-5-7-11-15-18-25l-4-1-2 2c-3 30-5 48-5 54 0 18 2 37 7 59 4 22 10 49 19 82 8 33 13 53 14 58-6 13-9 29-9 49 0 15 5 30 15 44 10 14 23 21 38 21 11 0 21-4 27-12 6-7 10-17 10-29 0-12-4-31-13-54-8-24-12-42-12-54 0-12 4-22 12-30 9-8 19-12 32-12 10 0 20 3 29 8 9 4 16 11 22 19 6 8 11 17 16 27 5 10 8 21 11 32 3 11 4 21 6 31 1 10 2 20 2 29 0 33-11 58-32 77-21 18-48 27-81 27-38 0-70-12-96-37-25-24-38-56-38-93 0-9 1-17 4-25 2-8 5-14 7-18 3-5 6-9 8-13 2-4 4-7 4-9 0-5-2-12-5-21-3-8-6-13-10-13-1 0-2 1-5 1-10 3-18 8-26 16-8 8-13 17-17 27-5 10-8 21-10 31-2 10-3 21-3 30z"/>
<glyph glyph-name="facebook" unicode="&#57366;" d="M384 509l0-76-45 0c-17 0-28-3-33-10-6-7-9-17-9-31l0-54 84 0-11-85-73 0 0-216-87 0 0 216-73 0 0 85 73 0 0 62c0 36 10 63 29 83 20 19 47 29 80 29 28 0 49-1 65-3z"/>
<glyph glyph-name="twitter" unicode="&#57367;" d="M481 395c-13-18-28-34-46-47 0-3 0-7 0-12 0-25-3-50-11-74-7-25-18-49-33-71-14-23-32-43-52-61-21-17-45-31-74-41-29-11-60-16-92-16-52 0-99 14-142 42 7-1 14-2 22-2 43 0 81 14 115 40-20 0-38 6-54 18-16 12-27 27-33 46 7-1 13-2 18-2 8 0 16 1 24 4-21 4-39 15-53 31-14 17-21 37-21 59l0 1c13-7 27-11 42-11-13 8-23 19-30 32-8 14-11 29-11 44 0 17 4 33 12 47 23-28 51-51 84-68 33-17 69-27 107-29-2 8-3 15-3 22 0 25 9 47 27 65 18 18 40 27 66 27 26 0 49-10 67-29 21 4 40 11 59 22-7-22-21-39-41-51 18 2 35 7 53 14z"/>
<glyph glyph-name="sort" unicode="&#57368;" d="M402 201c0-5-2-9-5-13l-128-128c-4-3-8-5-13-5-5 0-9 2-13 5l-128 128c-3 4-5 8-5 13 0 5 2 9 5 13 4 4 8 5 13 5l256 0c5 0 9-1 13-5 3-4 5-8 5-13z m0 110c0-5-2-9-5-13-4-4-8-5-13-5l-256 0c-5 0-9 1-13 5-3 4-5 8-5 13 0 5 2 9 5 13l128 128c4 3 8 5 13 5 5 0 9-2 13-5l128-128c3-4 5-8 5-13z"/>
<glyph glyph-name="social-instagram-outline" unicode="&#57369;" d="M449 400c0 26-22 47-48 47l-289 0c-26 0-47-21-47-47l0-289c0-26 21-48 47-48l289 0c26 0 48 22 48 48z m-192-64c44 0 80-36 80-80 0-44-36-80-80-80-44 0-80 36-80 80 0 44 36 80 80 80z m160 15c0-8-8-16-16-16l-48 0c-9 0-16 8-16 16l0 48c0 9 7 16 16 16l48 0c8 0 16-7 16-16z m-15-256l-288 0c-9 0-17 9-17 17l0 175 53 0c-3-10-5-20-5-31 0-30 12-58 33-79 21-21 49-33 79-33 30 0 58 12 79 33 21 21 33 49 33 79 0 11-2 21-5 31l53 0 0-175c0-8-7-17-15-17z"/>
<glyph glyph-name="instagram" unicode="&#57370;" d="M426 105l0 185-39 0c4-12 6-25 6-38 0-24-6-46-18-66-13-20-29-36-50-48-21-12-44-18-69-18-37 0-69 13-96 39-27 26-40 57-40 93 0 13 2 26 6 38l-41 0 0-185c0-5 2-10 5-13 4-3 8-5 13-5l305 0c5 0 9 2 13 5 3 3 5 8 5 13z m-81 152c0 23-9 44-26 60-18 17-38 25-63 25-24 0-45-8-62-25-17-16-26-37-26-60 0-24 9-44 26-61 17-16 38-25 62-25 25 0 45 9 63 25 17 17 26 37 26 61z m81 103l0 47c0 5-2 10-6 14-4 4-8 6-14 6l-50 0c-5 0-10-2-14-6-4-4-5-9-5-14l0-47c0-6 1-10 5-14 4-4 9-6 14-6l50 0c6 0 10 2 14 6 4 4 6 8 6 14z m49 59l0-326c0-16-5-29-16-40-11-11-24-16-40-16l-326 0c-16 0-29 5-40 16-11 11-16 24-16 40l0 326c0 16 5 29 16 40 11 11 24 16 40 16l326 0c16 0 29-5 40-16 11-11 16-24 16-40z"/>
<glyph glyph-name="truck" unicode="&#57371;" d="M183 110c0 10-4 18-11 25-7 8-16 11-26 11-10 0-18-3-25-11-8-7-11-15-11-25 0-10 3-19 11-26 7-7 15-11 25-11 10 0 19 4 26 11 7 7 11 16 11 26z m-110 146l110 0 0 73-45 0c-3 0-5-1-7-2l-55-56c-2-2-3-4-3-6z m366-146c0 10-4 18-11 25-7 8-16 11-26 11-10 0-18-3-25-11-8-7-11-15-11-25 0-10 3-19 11-26 7-7 15-11 25-11 10 0 19 4 26 11 7 7 11 16 11 26z m73 311l0-293c0-3 0-5-1-8-1-2-2-4-4-5-2-1-3-2-5-3-1-1-3-2-6-2-4 0-6 0-7 0-1-1-3-1-7 0-4 0-6 0-7 0 0-20-7-38-21-52-14-14-32-21-52-21-20 0-37 7-51 21-15 14-22 32-22 52l-110 0c0-20-7-38-21-52-14-14-32-21-52-21-20 0-37 7-51 21-15 14-22 32-22 52l-18 0c-1 0-3-1-7-2-3-1-6-1-7 0-1 1-3 1-6 1-3-1-6 0-7 2-1 1-3 2-5 3-2 0-3 2-4 5 0 3-1 6-1 8 0 5 2 9 6 13 3 3 8 5 13 5l0 91c0 2 0 5-1 10 0 6 0 9 0 11 1 2 1 6 1 10 1 5 1 8 2 11 1 2 2 5 4 8 2 4 4 7 6 9l57 57c4 3 8 6 14 9 6 2 12 3 17 3l46 0 0 55c0 5 2 10 5 13 4 4 8 6 13 6l293 0c5 0 9-2 13-6 3-3 5-8 5-13z"/>
<glyph glyph-name="gift" unicode="&#57372;" d="M302 125l0 204-92 0 0-204c0-5 2-9 5-11 4-3 8-4 14-4l54 0c6 0 10 1 14 4 3 2 5 6 5 11z m-131 241l56 0-36 46c-5 6-11 9-20 9-7 0-14-3-19-8-5-6-8-12-8-20 0-7 3-14 8-19 5-6 12-8 19-8z m197 27c0 8-3 14-8 20-5 5-12 8-19 8-9 0-15-3-20-9l-36-46 56 0c7 0 14 2 19 8 5 5 8 12 8 19z m107-73l0-91c0-3 0-5-2-7-2-2-4-3-7-3l-27 0 0-118c0-8-3-15-8-20-5-5-12-8-20-8l-310 0c-8 0-15 3-20 8-5 5-8 12-8 20l0 118-27 0c-3 0-5 1-7 3-2 2-2 4-2 7l0 91c0 3 0 5 2 7 2 1 4 2 7 2l125 0c-17 0-32 6-45 19-12 12-19 27-19 45 0 18 7 33 19 45 13 13 28 19 45 19 21 0 37-7 48-22l37-47 37 47c11 15 27 22 48 22 17 0 32-6 45-19 12-12 19-27 19-45 0-18-7-33-19-45-13-13-28-19-45-19l125 0c3 0 5-1 7-2 2-2 2-4 2-7z"/>
<glyph glyph-name="heart-o" unicode="&#57373;" d="M475 342c0 15-2 29-6 41-4 11-9 21-15 28-7 7-15 12-24 17-9 4-18 7-27 9-8 1-18 2-28 2-9 0-20-3-32-7-11-5-22-11-31-19-10-7-18-14-25-20-7-7-12-13-17-18-3-4-8-6-14-6-6 0-11 2-14 6-5 5-10 11-17 18-7 6-15 13-25 20-9 8-20 14-31 19-12 4-23 7-32 7-10 0-20-1-28-2-9-2-18-5-27-9-9-5-17-10-24-17-6-7-11-17-15-28-4-12-6-26-6-41 0-32 17-66 53-102l166-160 166 160c36 36 53 70 53 102z m37 0c0-42-22-85-65-129l-178-171c-4-4-8-5-13-5-5 0-9 1-13 5l-178 172c-2 1-4 4-8 7-3 4-8 10-16 19-7 9-13 18-19 28-6 9-11 21-15 34-5 14-7 27-7 40 0 42 12 74 36 98 24 24 58 35 101 35 11 0 23-2 36-6 12-4 23-9 34-16 11-7 20-14 27-20 8-6 15-12 22-19 7 7 14 13 22 19 7 6 16 13 27 20 11 7 22 12 34 16 13 4 25 6 36 6 43 0 77-11 101-35 24-24 36-56 36-98z"/>
<glyph glyph-name="envelope" unicode="&#57374;" d="M512 309l0-227c0-12-4-23-13-32-9-9-20-13-33-13l-420 0c-13 0-24 4-33 13-9 9-13 20-13 32l0 227c8-9 18-17 29-25 69-47 116-79 142-98 11-8 20-15 26-19 7-4 16-9 27-14 12-4 22-7 32-7l0 0c10 0 20 3 32 7 11 5 20 10 27 14 6 4 15 11 26 19 33 23 80 56 142 98 11 8 21 16 29 25z m0 84c0-15-5-29-14-43-9-14-21-25-35-35-71-50-116-81-134-93-1-1-6-4-12-9-6-4-11-8-15-11-4-2-9-5-15-9-6-3-11-6-16-8-6-1-10-2-15-2l0 0c-5 0-9 1-15 2-5 2-10 5-16 8-6 4-11 7-15 9-4 3-9 7-15 11-6 5-11 8-12 9-18 12-43 30-75 52-33 23-52 36-59 41-12 8-23 19-33 33-11 14-16 27-16 39 0 15 4 27 12 37 8 10 19 15 34 15l420 0c13 0 23-5 32-14 9-9 14-19 14-32z"/>
<glyph glyph-name="pencil-square-o" unicode="&#57375;" d="M254 174l33 33-44 43-33-33 0-16 28 0 0-27z m125 205c-3 3-6 3-9 0l-100-100c-3-3-3-6 0-9 3-3 6-3 9 0l100 100c3 3 3 6 0 9z m23-169l0-55c0-22-8-42-24-58-16-16-35-24-58-24l-238 0c-22 0-42 8-58 24-16 16-24 36-24 58l0 238c0 23 8 42 24 58 16 16 36 24 58 24l238 0c12 0 23-2 33-7 3-1 5-3 6-6 0-4-1-6-3-9l-14-14c-3-2-6-3-9-2-5 1-9 2-13 2l-238 0c-12 0-23-5-32-14-9-9-13-19-13-32l0-238c0-12 4-23 13-32 9-9 20-13 32-13l238 0c13 0 23 4 32 13 9 9 14 20 14 32l0 36c0 3 1 5 2 7l19 18c2 3 6 4 10 2 3-2 5-4 5-8z m-27 211l82-83-192-192-82 0 0 83z m127-38l-27-26-82 82 26 26c6 5 12 8 20 8 7 0 14-3 19-8l44-43c5-6 8-12 8-20 0-7-3-14-8-19z"/>
<glyph glyph-name="refresh" unicode="&#57376;" d="M468 210c0-1 0-1 0-2-12-51-38-92-77-124-38-32-84-47-136-47-28 0-55 5-81 15-26 11-49 26-69 45l-37-37c-4-3-8-5-13-5-5 0-9 2-13 5-4 4-5 8-5 13l0 128c0 5 1 9 5 13 4 4 8 5 13 5l128 0c5 0 9-1 13-5 3-4 5-8 5-13 0-5-2-9-5-13l-39-39c13-12 28-22 46-29 17-7 35-10 53-10 26 0 49 6 71 18 23 13 40 30 54 51 2 4 7 15 15 34 1 4 4 6 8 6l55 0c3 0 5 0 7-2 1-2 2-4 2-7z m7 229l0-128c0-5-1-9-5-13-4-4-8-5-13-5l-128 0c-5 0-9 1-13 5-3 4-5 8-5 13 0 5 2 9 5 13l40 39c-28 26-62 39-100 39-26 0-49-6-71-18-23-13-40-30-54-51-2-4-7-15-15-34-1-4-4-6-8-6l-57 0c-3 0-5 0-7 2-1 2-2 4-2 7l0 2c12 51 38 92 77 124 39 32 85 47 137 47 28 0 55-5 81-15 26-11 50-26 70-45l37 37c4 3 8 5 13 5 5 0 9-2 13-5 4-4 5-8 5-13z"/>
<glyph glyph-name="star" unicode="&#57377;" d="M494 327c0-4-3-9-8-14l-103-101 24-143c0-1 0-3 0-5 0-4-1-8-3-10-2-3-4-5-8-5-4 0-8 2-12 4l-128 67-128-67c-4-2-8-4-12-4-4 0-7 2-9 5-2 2-3 6-3 10 0 1 0 3 1 5l24 143-104 101c-4 6-7 10-7 14 0 7 6 12 16 13l144 21 64 130c4 8 8 12 14 12 6 0 10-4 14-12l64-130 144-21c10-1 16-6 16-13z"/>
<glyph glyph-name="align-bottom" unicode="&#57378;" d="M5 238l0 36c0 5 2 9 5 13 4 3 8 5 13 5l466 0c10 0 18-8 18-18l0-36c0-10-8-18-18-18l-466 0c-5 0-9 2-13 5-3 4-5 8-5 13z m36-215l0 36c0 10 8 18 18 18l394 0c10 0 18-8 18-18l0-36c0-10-8-18-18-18l-394 0c-10 0-18 8-18 18z m72 108l0 35c0 10 8 18 18 18l250 0c10 0 18-8 18-18l0-35c0-10-8-18-18-18l-250 0c-10 0-18 8-18 18z"/>
<glyph glyph-name="align-center" unicode="&#57379;" d="M5 349l0 36c0 4 2 9 5 12 4 4 8 6 13 5l466 0c10 0 18-8 18-17l0-36c0-10-8-18-18-18l-466 0c-5 0-9 1-13 5-3 3-5 8-5 13z m36-215l0 35c0 10 8 18 18 18l394 0c10 0 18-8 18-18l0-35c0-10-8-18-18-18l-394 0c-10 0-18 8-18 18z m72 107l0 36c0 10 8 18 18 18l250 0c10 0 18-8 18-18l0-36c0-10-8-18-18-18l-250 0c-10 0-18 8-18 18z"/>
<glyph glyph-name="align-top" unicode="&#57380;" d="M5 453l0 36c0 5 2 9 5 13 4 3 8 5 13 5l466 0c5 0 9-2 13-5 3-4 5-8 5-13l0-36c0-10-8-18-18-18l-466 0c-5 0-9 2-13 5-3 4-5 8-5 13z m36-215l0 36c0 10 8 18 18 18l394 0c10 0 18-8 18-18l0-36c0-10-8-18-18-18l-394 0c-10 0-18 8-18 18z m72 108l0 35c0 10 8 18 18 18l250 0c10 0 18-8 18-18l0-35c0-10-8-18-18-18l-250 0c-10 0-18 8-18 18z"/>
<glyph glyph-name="align-center-1" unicode="&#57381;" d="M512 128l0-37c0-5-2-9-5-12-4-4-8-6-13-6l-476 0c-5 0-9 2-13 6-3 3-5 7-5 12l0 37c0 5 2 9 5 13 4 3 8 5 13 5l476 0c5 0 9-2 13-5 3-4 5-8 5-13z m-110 110l0-37c0-5-2-9-5-13-4-3-8-5-13-5l-256 0c-5 0-9 2-13 5-3 4-5 8-5 13l0 37c0 5 2 9 5 13 4 3 8 5 13 5l256 0c5 0 9-2 13-5 3-4 5-8 5-13z m73 109l0-36c0-5-1-9-5-13-4-4-8-5-13-5l-402 0c-5 0-9 1-13 5-4 4-5 8-5 13l0 36c0 5 1 10 5 13 4 4 8 6 13 6l402 0c5 0 9-2 13-6 4-3 5-8 5-13z m-109 110l0-36c0-5-2-10-6-13-3-4-8-6-13-6l-182 0c-5 0-10 2-13 6-4 3-6 8-6 13l0 36c0 5 2 9 6 13 3 4 8 5 13 5l182 0c5 0 10-1 13-5 4-4 6-8 6-13z"/>
<glyph glyph-name="align-justify" unicode="&#57382;" d="M512 128l0-37c0-5-2-9-5-12-4-4-8-6-13-6l-476 0c-5 0-9 2-13 6-3 3-5 7-5 12l0 37c0 5 2 9 5 13 4 3 8 5 13 5l476 0c5 0 9-2 13-5 3-4 5-8 5-13z m0 110l0-37c0-5-2-9-5-13-4-3-8-5-13-5l-476 0c-5 0-9 2-13 5-3 4-5 8-5 13l0 37c0 5 2 9 5 13 4 3 8 5 13 5l476 0c5 0 9-2 13-5 3-4 5-8 5-13z m0 109l0-36c0-5-2-9-5-13-4-4-8-5-13-5l-476 0c-5 0-9 1-13 5-3 4-5 8-5 13l0 36c0 5 2 10 5 13 4 4 8 6 13 6l476 0c5 0 9-2 13-6 3-3 5-8 5-13z m0 110l0-36c0-5-2-10-5-13-4-4-8-6-13-6l-476 0c-5 0-9 2-13 6-3 3-5 8-5 13l0 36c0 5 2 9 5 13 4 4 8 5 13 5l476 0c5 0 9-1 13-5 3-4 5-8 5-13z"/>
<glyph glyph-name="align-left" unicode="&#57383;" d="M512 128l0-37c0-5-2-9-5-12-4-4-8-6-13-6l-476 0c-5 0-9 2-13 6-3 3-5 7-5 12l0 37c0 5 2 9 5 13 4 3 8 5 13 5l476 0c5 0 9-2 13-5 3-4 5-8 5-13z m-110 110l0-37c0-5-2-9-5-13-4-3-8-5-13-5l-366 0c-5 0-9 2-13 5-3 4-5 8-5 13l0 37c0 5 2 9 5 13 4 3 8 5 13 5l366 0c5 0 9-2 13-5 3-4 5-8 5-13z m73 109l0-36c0-5-1-9-5-13-4-4-8-5-13-5l-439 0c-5 0-9 1-13 5-3 4-5 8-5 13l0 36c0 5 2 10 5 13 4 4 8 6 13 6l439 0c5 0 9-2 13-6 4-3 5-8 5-13z m-109 110l0-36c0-5-2-10-6-13-3-4-8-6-13-6l-329 0c-5 0-9 2-13 6-3 3-5 8-5 13l0 36c0 5 2 9 5 13 4 4 8 5 13 5l329 0c5 0 10-1 13-5 4-4 6-8 6-13z"/>
<glyph glyph-name="repeat" unicode="&#57384;" d="M475 439l0-128c0-5-1-9-5-13-4-4-8-5-13-5l-128 0c-8 0-13 3-17 11-3 7-2 14 4 20l40 39c-28 26-62 39-100 39-20 0-39-4-57-11-18-8-33-18-46-32-14-13-24-28-32-46-7-18-11-37-11-57 0-20 4-39 11-57 8-18 18-33 32-46 13-14 28-24 46-32 18-7 37-11 57-11 23 0 44 5 64 15 20 9 38 23 51 42 2 1 4 3 7 3 3 0 5-1 7-3l39-39c2-2 3-3 3-6 0-2-1-4-2-6-21-25-46-45-76-59-29-14-60-20-93-20-30 0-58 5-85 17-27 12-51 27-70 47-20 19-35 43-47 70-12 27-17 55-17 85 0 30 5 58 17 85 12 27 27 51 47 70 19 20 43 35 70 47 27 12 55 17 85 17 28 0 55-5 81-15 26-11 50-26 70-45l37 37c6 6 12 7 20 4 8-4 11-9 11-17z"/>
<glyph glyph-name="undo" unicode="&#57385;" d="M475 256c0-30-5-58-17-85-12-27-27-51-47-70-19-20-43-35-70-47-27-12-55-17-85-17-33 0-64 6-93 20-30 14-55 34-76 59-1 2-2 4-2 6 0 3 1 4 3 6l39 39c2 2 4 3 7 3 3 0 5-2 7-3 13-19 31-33 51-42 20-10 41-15 64-15 20 0 39 4 57 11 18 8 33 18 46 32 14 13 24 28 32 46 7 18 11 37 11 57 0 20-4 39-11 57-8 18-18 33-32 46-13 14-28 24-46 32-18 7-37 11-57 11-19 0-37-3-54-10-17-7-32-16-45-29l39-39c6-6 7-13 4-20-4-8-9-11-17-11l-128 0c-5 0-9 1-13 5-4 4-5 8-5 13l0 128c0 8 3 13 11 17 7 3 14 2 20-4l37-37c20 19 44 34 70 45 26 10 53 15 81 15 30 0 58-5 85-17 27-12 51-27 70-47 20-19 35-43 47-70 12-27 17-55 17-85z"/>
<glyph glyph-name="align-right" unicode="&#57386;" d="M512 128l0-37c0-5-2-9-5-12-4-4-8-6-13-6l-476 0c-5 0-9 2-13 6-3 3-5 7-5 12l0 37c0 5 2 9 5 13 4 3 8 5 13 5l476 0c5 0 9-2 13-5 3-4 5-8 5-13z m0 110l0-37c0-5-2-9-5-13-4-3-8-5-13-5l-366 0c-5 0-9 2-13 5-3 4-5 8-5 13l0 37c0 5 2 9 5 13 4 3 8 5 13 5l366 0c5 0 9-2 13-5 3-4 5-8 5-13z m0 109l0-36c0-5-2-9-5-13-4-4-8-5-13-5l-439 0c-5 0-9 1-13 5-4 4-5 8-5 13l0 36c0 5 1 10 5 13 4 4 8 6 13 6l439 0c5 0 9-2 13-6 3-3 5-8 5-13z m0 110l0-36c0-5-2-10-5-13-4-4-8-6-13-6l-329 0c-5 0-10 2-13 6-4 3-6 8-6 13l0 36c0 5 2 9 6 13 3 4 8 5 13 5l329 0c5 0 9-1 13-5 3-4 5-8 5-13z"/>
<glyph glyph-name="chevron-down" unicode="&#57351;" d="M481 281l-212-212c-4-3-8-5-13-5-5 0-9 2-13 5l-212 212c-3 4-5 8-5 13 0 5 2 10 5 13l48 47c3 4 7 6 12 6 5 0 10-2 13-6l152-151 152 151c3 4 8 6 13 6 5 0 9-2 12-6l48-47c3-3 5-8 5-13 0-5-2-9-5-13z"/>
<glyph glyph-name="bars" unicode="&#57387;" d="M475 128l0-37c0-5-1-9-5-12-4-4-8-6-13-6l-402 0c-5 0-9 2-13 6-4 3-5 7-5 12l0 37c0 5 1 9 5 13 4 3 8 5 13 5l402 0c5 0 9-2 13-5 4-4 5-8 5-13z m0 146l0-36c0-5-1-10-5-13-4-4-8-6-13-6l-402 0c-5 0-9 2-13 6-4 3-5 8-5 13l0 36c0 5 1 10 5 13 4 4 8 6 13 6l402 0c5 0 9-2 13-6 4-3 5-8 5-13z m0 147l0-37c0-5-1-9-5-13-4-3-8-5-13-5l-402 0c-5 0-9 2-13 5-4 4-5 8-5 13l0 37c0 5 1 9 5 12 4 4 8 6 13 6l402 0c5 0 9-2 13-6 4-3 5-7 5-12z"/>
<glyph glyph-name="unlock-alt" unicode="&#57388;" d="M393 293c8 0 14-3 20-8 5-6 8-12 8-20l0-164c0-8-3-15-8-20-6-5-12-8-20-8l-274 0c-8 0-14 3-20 8-5 5-8 12-8 20l0 164c0 8 3 14 8 20 6 5 12 8 20 8l9 0 0 91c0 35 13 65 38 90 25 25 55 38 90 38 35 0 65-13 90-38 25-25 38-55 38-90 0-5-2-9-5-13-4-3-8-5-13-5l-19 0c-5 0-9 2-12 5-4 4-6 8-6 13 0 20-7 37-21 52-15 14-32 21-52 21-20 0-37-7-52-21-14-15-21-32-21-52l0-91z"/>
<glyph glyph-name="user" unicode="&#57389;" d="M457 111c0-23-7-41-21-55-14-13-32-19-55-19l-250 0c-23 0-41 6-55 19-14 14-21 32-21 55 0 10 0 20 1 29 1 10 2 20 4 31 2 11 4 22 7 31 3 10 8 19 13 28 5 9 11 17 17 23 7 7 15 12 25 16 9 3 20 5 32 5 1 0 5-2 12-6 6-4 13-9 21-14 8-5 18-9 31-13 13-4 25-6 38-6 13 0 25 2 38 6 13 4 23 8 31 13 8 5 15 10 21 14 7 4 11 6 12 6 12 0 23-2 32-5 10-4 18-9 25-16 6-6 12-14 17-23 5-9 10-18 13-28 3-9 5-20 7-31 2-11 3-21 4-31 1-9 1-19 1-29z m-91 255c0-31-11-56-32-78-22-21-48-32-78-32-30 0-56 11-78 32-21 22-32 47-32 78 0 30 11 56 32 77 22 22 48 32 78 32 30 0 56-10 78-32 21-21 32-47 32-77z"/>
<glyph glyph-name="paper-plane" unicode="&#57390;" d="M504 509c6-5 9-11 8-18l-73-439c-1-6-4-10-10-13-2-2-5-2-8-2-3 0-5 0-7 1l-130 53-69-84c-3-5-8-7-14-7-2 0-4 0-6 1-4 1-7 4-9 7-2 3-3 6-3 10l0 100 247 303-306-265-113 47c-7 2-10 7-11 15 0 8 3 14 9 17l476 274c2 2 5 3 9 3 4 0 7-1 10-3z"/>
<glyph glyph-name="info-1" unicode="&#57391;" d="M347 128l0-37c0-5-1-9-5-12-4-4-8-6-13-6l-146 0c-5 0-9 2-13 6-4 3-5 7-5 12l0 37c0 5 1 9 5 13 4 3 8 5 13 5l18 0 0 110-18 0c-5 0-9 2-13 5-4 4-5 8-5 13l0 37c0 5 1 9 5 13 4 3 8 5 13 5l110 0c5 0 9-2 12-5 4-4 6-8 6-13l0-165 18 0c5 0 9-2 13-5 4-4 5-8 5-13z m-36 329l0-55c0-5-2-9-6-13-3-3-7-5-12-5l-74 0c-5 0-9 2-12 5-4 4-6 8-6 13l0 55c0 5 2 9 6 13 3 4 7 5 12 5l74 0c5 0 9-1 12-5 4-4 6-8 6-13z"/>
</font></defs></svg>
